<?xml version="1.0" standalone="no"?>
<!DOCTYPE svg PUBLIC "-//W3C//DTD SVG 20010904//EN"
 "http://www.w3.org/TR/2001/REC-SVG-20010904/DTD/svg10.dtd">
<svg version="1.0" xmlns="http://www.w3.org/2000/svg"
 width="576.000000pt" height="576.000000pt" viewBox="0 0 576.000000 576.000000"
 preserveAspectRatio="xMidYMid meet">
<metadata>
Created by potrace 1.14, written by Peter Selinger 2001-2017
</metadata>
<g transform="translate(0.000000,576.000000) scale(0.100000,-0.100000)"
fill="#000000" stroke="none">
<path d="M1330 5748 c0 -6 -3 -8 -7 -5 -3 4 -12 2 -20 -4 -8 -7 -13 -7 -13 -2
0 15 -60 5 -97 -15 -15 -9 -23 -9 -23 -2 0 7 -6 8 -19 0 -14 -7 -21 -6 -24 3
-3 7 -6 5 -6 -5 -1 -13 -8 -17 -23 -14 -12 1 -29 -3 -37 -11 -8 -8 -22 -12
-32 -10 -11 3 -19 1 -19 -4 0 -5 -11 -11 -25 -15 -14 -3 -25 -10 -25 -15 0 -5
-6 -6 -14 -3 -7 3 -20 -1 -27 -8 -8 -7 -21 -14 -29 -16 -8 -2 -17 -8 -18 -13
-2 -5 -8 -7 -13 -3 -5 3 -12 -1 -15 -10 -3 -8 -14 -13 -25 -11 -11 2 -17 0
-14 -4 2 -5 -9 -14 -25 -21 -17 -7 -30 -16 -30 -21 0 -4 -9 -11 -21 -14 -12
-4 -29 -14 -38 -23 -9 -10 -32 -28 -50 -42 -49 -37 -154 -141 -148 -147 3 -2
-13 -23 -36 -45 -23 -22 -41 -47 -39 -54 2 -8 -1 -14 -6 -14 -6 0 -17 -12 -27
-26 -12 -18 -13 -24 -4 -19 8 3 7 1 -2 -7 -9 -7 -19 -23 -23 -36 -4 -12 -12
-19 -18 -16 -7 4 -8 2 -4 -4 4 -6 1 -22 -6 -34 -7 -13 -11 -26 -10 -30 1 -5
-3 -8 -9 -8 -6 0 -9 -9 -6 -20 3 -10 2 -18 -2 -17 -3 1 -7 -1 -9 -5 -1 -4 -11
-28 -22 -54 -11 -25 -18 -50 -14 -55 3 -5 1 -9 -4 -9 -5 0 -12 -9 -15 -20 -3
-11 -1 -18 4 -14 5 3 6 -2 3 -10 -3 -9 -9 -16 -14 -16 -4 0 -8 -15 -9 -32 -4
-56 -4 -58 -14 -58 -5 0 -7 -9 -4 -20 3 -11 1 -23 -4 -26 -6 -4 -6 -11 1 -19
6 -7 7 -16 3 -18 -5 -3 -8 -21 -8 -41 1 -19 -2 -33 -7 -30 -12 8 0 -396 12
-426 1 -3 1 -13 0 -24 -1 -12 2 -16 11 -10 9 5 11 2 6 -9 -3 -9 -2 -19 4 -23
7 -4 6 -10 -1 -19 -8 -9 -8 -14 0 -17 6 -2 12 -10 13 -18 2 -8 6 -21 10 -27 5
-7 5 -13 0 -13 -4 0 0 -5 10 -11 14 -8 16 -14 6 -25 -7 -8 -7 -14 -1 -14 5 0
18 -23 28 -50 10 -27 22 -50 26 -50 4 0 8 -9 8 -20 0 -11 5 -20 10 -20 6 0 10
-7 10 -15 0 -8 10 -23 22 -35 12 -11 19 -23 15 -26 -3 -3 8 -19 24 -35 16 -15
29 -33 29 -39 0 -13 195 -208 240 -240 19 -13 37 -27 40 -31 11 -14 88 -48 95
-41 5 4 5 2 1 -5 -4 -8 2 -15 19 -19 14 -3 25 -10 25 -16 0 -5 5 -6 10 -3 6 3
10 1 10 -5 0 -6 5 -8 10 -5 6 3 10 2 10 -4 0 -6 7 -8 15 -5 8 4 15 1 15 -6 0
-6 4 -9 9 -5 6 3 14 -3 20 -12 5 -10 12 -17 15 -15 8 3 26 0 71 -12 17 -5 35
-12 40 -17 14 -11 78 -15 92 -6 7 4 14 -1 18 -13 5 -15 11 -18 23 -11 9 5 26
5 37 1 11 -4 30 -4 43 1 12 5 22 5 22 0 0 -9 55 -5 71 4 5 4 9 2 9 -3 0 -10
54 -7 71 3 5 4 9 3 9 -2 0 -4 20 -8 45 -8 25 0 45 4 45 8 0 4 9 3 20 -3 16 -8
20 -8 18 2 -2 9 12 14 42 16 25 1 52 5 60 9 8 3 20 7 25 9 6 1 29 9 52 17 22
9 44 14 47 11 3 -2 4 -1 1 3 -6 8 65 34 76 28 4 -3 9 2 13 10 3 8 14 15 25 15
11 0 26 8 33 18 12 16 29 24 55 25 7 0 10 4 7 9 -3 4 2 8 11 8 10 0 13 5 9 12
-4 6 -3 8 4 4 6 -3 17 0 25 8 12 12 16 12 30 -4 8 -10 12 -21 9 -25 -4 -3 2
-3 12 1 12 5 23 2 30 -7 6 -8 17 -15 24 -17 7 -1 30 -13 50 -25 20 -13 58 -31
85 -41 26 -10 47 -22 47 -27 0 -6 5 -7 10 -4 12 8 52 -4 46 -13 -2 -4 8 -8 22
-9 46 -3 140 -21 153 -29 16 -10 59 -12 59 -3 0 4 8 6 18 4 9 -2 17 -4 17 -5
0 -1 19 -2 43 -3 23 -2 42 1 42 4 0 9 21 6 37 -4 6 -4 15 -3 18 3 4 6 12 7 18
3 15 -10 38 -10 55 1 7 4 19 3 27 -4 9 -7 15 -8 20 0 4 7 12 7 26 0 15 -8 19
-8 17 2 -2 9 8 13 30 13 17 0 32 3 32 6 0 4 9 5 20 2 11 -3 20 -1 20 4 0 6 12
10 28 9 15 -1 33 5 40 12 7 6 22 12 33 12 10 0 19 5 19 11 0 6 6 9 13 6 7 -3
21 1 32 9 10 8 25 14 33 14 9 0 30 11 48 25 18 14 40 25 48 25 8 0 24 10 36
22 11 12 20 18 20 13 0 -4 9 0 20 10 11 10 17 23 13 29 -3 6 7 -3 23 -20 16
-17 35 -29 42 -27 6 3 12 0 12 -7 0 -6 5 -8 10 -5 6 3 10 1 10 -5 0 -7 7 -9
17 -6 10 4 15 4 11 1 -8 -8 23 -45 33 -39 4 2 28 -7 53 -20 26 -14 44 -20 41
-15 -3 5 1 6 9 3 9 -3 14 -9 12 -13 -4 -6 18 -11 61 -14 7 0 10 -4 7 -9 -5 -7
9 -12 28 -9 4 0 22 -6 40 -13 21 -9 39 -11 50 -5 11 6 21 4 31 -6 8 -8 17 -12
20 -9 3 3 14 1 26 -5 14 -8 22 -8 26 -1 4 7 12 7 18 2 14 -10 27 -10 45 1 6 5
17 5 24 1 15 -9 88 -12 88 -3 0 9 21 6 37 -4 6 -4 14 -3 18 3 4 6 12 7 18 3
17 -10 88 -5 112 8 6 3 35 7 65 8 30 2 60 7 66 12 14 12 25 -23 13 -42 -4 -7
-4 -20 1 -29 5 -9 5 -22 0 -30 -5 -8 -6 -18 -3 -23 3 -5 6 -26 7 -48 2 -32 0
-39 -13 -34 -12 4 -12 2 2 -9 19 -15 24 -31 6 -20 -8 5 -9 2 -1 -12 6 -10 7
-27 2 -40 -5 -12 -6 -25 -2 -28 9 -10 10 -46 0 -46 -5 0 -6 -6 -1 -12 11 -18
10 -52 -2 -60 -6 -5 -5 -8 3 -8 6 0 12 -5 12 -11 0 -5 -4 -8 -9 -4 -10 5 -6
-33 3 -42 3 -3 1 -16 -4 -29 -6 -14 -6 -26 0 -29 6 -4 7 -13 1 -24 -6 -10 -6
-23 0 -32 12 -20 11 -32 -2 -23 -8 5 -9 2 -1 -12 6 -11 7 -27 1 -41 -5 -13 -4
-25 1 -28 7 -4 7 -13 0 -24 -5 -10 -7 -21 -4 -24 3 -3 7 -24 8 -47 2 -33 0
-40 -13 -35 -12 4 -12 2 2 -9 19 -15 24 -31 6 -20 -8 5 -9 2 -1 -12 6 -10 7
-27 2 -40 -5 -12 -6 -25 -2 -28 9 -10 10 -46 0 -46 -5 0 -6 -6 -1 -12 11 -18
10 -52 -2 -60 -6 -5 -5 -8 3 -8 6 0 12 -5 12 -11 0 -5 -4 -8 -9 -4 -10 5 -6
-33 3 -42 3 -3 1 -16 -4 -29 -6 -14 -6 -26 0 -29 6 -4 7 -13 1 -24 -6 -10 -6
-23 0 -32 12 -20 11 -32 -2 -23 -8 5 -9 2 -1 -12 6 -11 7 -27 1 -41 -5 -13 -4
-25 1 -28 7 -4 7 -13 0 -24 -5 -10 -7 -21 -4 -24 3 -3 7 -24 8 -47 2 -33 0
-40 -13 -35 -12 4 -12 2 2 -9 19 -15 24 -31 6 -20 -8 5 -9 2 -1 -12 6 -10 7
-27 2 -40 -5 -12 -6 -25 -2 -28 9 -10 10 -46 0 -46 -5 0 -6 -6 -1 -12 11 -18
10 -52 -2 -60 -6 -5 -5 -8 3 -8 6 0 12 -5 12 -11 0 -5 -4 -8 -9 -4 -10 5 -6
-33 3 -42 3 -3 1 -16 -4 -29 -6 -14 -6 -26 0 -29 6 -4 7 -13 1 -24 -6 -10 -6
-23 0 -32 12 -20 11 -32 -2 -23 -8 5 -9 2 -1 -12 6 -11 7 -27 1 -41 -5 -13 -4
-25 1 -28 6 -4 7 -13 1 -24 -6 -10 -6 -23 0 -32 11 -18 12 -32 0 -25 -4 3 -5
-11 -2 -32 4 -20 6 -56 5 -79 -1 -29 3 -40 10 -36 6 4 4 -2 -4 -13 -8 -10 -15
-21 -17 -23 -1 -1 -1 10 -1 25 1 47 -1 54 -18 54 -10 0 -12 5 -7 13 17 27 7
71 -21 89 -7 5 -7 8 0 8 13 0 10 60 -4 69 -5 3 -9 17 -8 31 1 14 -5 35 -12 48
-8 12 -12 33 -10 47 3 13 1 26 -4 27 -5 2 -10 13 -11 26 0 12 -4 22 -7 22 -4
0 -6 10 -5 22 1 12 -4 34 -12 48 -8 16 -9 26 -2 28 6 3 4 14 -6 29 -9 14 -14
27 -12 30 3 3 -1 23 -9 45 -8 22 -14 56 -14 74 0 19 -5 34 -11 34 -6 0 -9 14
-6 33 2 18 -2 38 -10 46 -8 7 -12 20 -9 27 3 7 1 16 -3 19 -5 3 -7 15 -3 27 3
12 1 19 -5 15 -6 -4 -9 8 -8 28 0 19 -2 35 -5 35 -4 0 -11 20 -17 45 -6 27 -7
45 -1 45 5 0 2 7 -7 16 -9 9 -15 26 -14 38 3 29 -11 57 -25 49 -7 -4 -7 -2 1
7 8 9 9 19 2 32 -7 13 -6 18 3 18 9 1 9 4 -2 13 -9 7 -15 21 -15 32 0 11 -5
31 -11 45 -6 14 -10 33 -9 43 2 9 -1 17 -6 17 -6 0 -7 6 -1 17 7 11 5 21 -5
31 -8 8 -12 21 -9 28 3 7 1 16 -5 20 -6 4 -5 12 3 22 8 9 8 13 2 9 -13 -7 -27
19 -19 33 3 5 1 11 -4 14 -5 3 -7 15 -4 25 3 10 -3 31 -12 45 -11 16 -13 26
-6 26 12 0 -6 39 -24 52 -6 5 -6 8 2 8 12 0 7 36 -8 55 -4 6 -7 20 -5 30 4 23
-13 65 -26 65 -5 0 -6 6 -2 12 11 17 12 48 3 48 -5 0 -11 16 -15 36 -4 24 -14
39 -30 46 -13 6 -24 15 -24 20 0 12 -45 10 -74 -4 -38 -16 -58 -53 -55 -98 2
-22 0 -42 -4 -46 -3 -4 -2 -15 4 -25 5 -11 6 -19 2 -19 -4 0 -6 -43 -3 -96 3
-53 2 -98 -3 -101 -4 -2 -2 -13 3 -24 6 -10 7 -19 3 -19 -4 0 -6 -43 -3 -96 3
-53 2 -98 -3 -101 -4 -2 -2 -13 3 -24 6 -10 7 -19 3 -19 -4 0 -6 -43 -3 -96 3
-53 2 -98 -3 -101 -4 -2 -2 -13 3 -24 6 -10 7 -19 3 -19 -4 0 -6 -61 -3 -136
3 -75 2 -138 -3 -141 -4 -2 -2 -13 3 -24 6 -10 7 -19 3 -19 -4 0 -6 -43 -3
-96 3 -53 2 -98 -3 -101 -4 -2 -2 -13 3 -24 6 -10 7 -19 3 -19 -4 0 -6 -43 -3
-96 3 -53 2 -98 -3 -101 -4 -2 -2 -13 3 -24 6 -10 7 -19 3 -19 -4 0 -6 -43 -3
-96 3 -53 2 -98 -3 -101 -4 -2 -2 -13 3 -24 6 -10 7 -19 3 -19 -4 0 -6 -43 -3
-96 3 -53 2 -98 -3 -101 -4 -2 -2 -13 3 -24 6 -10 7 -19 3 -19 -4 0 -6 -43 -3
-96 3 -53 2 -98 -3 -101 -4 -2 -2 -13 3 -24 6 -10 7 -19 3 -19 -4 0 -6 -43 -3
-96 3 -53 2 -98 -3 -101 -4 -2 -2 -13 3 -24 6 -10 7 -19 3 -19 -4 0 -6 -43 -3
-96 3 -53 2 -98 -3 -101 -9 -6 10 -40 38 -69 15 -14 27 -19 36 -14 8 5 16 5
20 -2 4 -7 13 -6 29 2 12 6 24 9 27 7 2 -3 13 2 22 11 12 12 15 23 10 38 -4
12 -5 25 -1 29 10 10 8 39 -2 47 -6 4 -5 12 3 21 8 11 9 17 1 22 -6 3 -7 12
-3 18 10 16 10 37 1 65 -4 13 -5 21 0 19 8 -5 6 77 -2 99 -3 7 -1 16 5 20 7 4
6 10 -1 19 -6 7 -7 16 -2 19 10 6 9 36 -1 53 -4 6 -3 15 3 18 8 5 8 11 1 19
-6 7 -9 15 -6 18 10 10 12 68 2 68 -6 0 -6 4 1 12 5 7 6 22 2 33 -4 11 -4 30
1 41 4 13 3 26 -4 33 -6 6 -7 11 -1 11 9 0 10 78 0 87 -3 3 -1 15 4 28 5 14 5
26 -3 34 -6 6 -7 11 -1 11 10 0 11 56 1 67 -4 3 -2 12 4 19 7 8 7 14 -1 19 -6
3 -8 10 -5 15 11 18 12 69 1 73 -8 3 -7 8 2 19 9 11 10 18 2 23 -6 3 -7 12 -3
18 10 16 10 37 1 65 -4 13 -5 21 0 19 8 -5 6 77 -2 99 -3 7 -1 16 5 20 7 4 6
10 -1 19 -6 7 -7 16 -2 19 10 6 9 36 -1 53 -4 6 -3 15 3 18 8 5 8 11 1 19 -6
7 -9 15 -6 18 10 10 12 68 2 68 -6 0 -6 4 1 13 5 6 6 21 2 32 -4 11 -4 30 1
41 4 13 3 26 -4 33 -6 6 -7 11 -1 11 10 0 9 73 -1 90 -3 6 -2 10 3 10 12 0 10
43 -3 52 -7 5 -7 8 0 8 11 0 11 72 0 89 -3 5 -1 12 4 15 5 4 7 20 4 37 -4 26
-2 29 9 18 8 -7 13 -26 12 -43 -1 -17 2 -37 8 -43 6 -7 8 -19 5 -27 -3 -7 0
-19 6 -25 6 -6 7 -11 2 -11 -4 0 0 -9 9 -19 12 -13 14 -21 6 -26 -8 -5 -8 -11
1 -21 6 -8 8 -14 4 -14 -4 0 -2 -7 5 -15 6 -8 9 -19 6 -24 -4 -5 -2 -13 4 -16
8 -5 8 -11 0 -20 -8 -10 -7 -14 2 -17 7 -3 13 -18 14 -34 1 -16 3 -30 4 -31 2
-2 3 -6 5 -10 1 -5 5 -16 9 -25 4 -10 6 -23 3 -30 -2 -7 4 -30 15 -51 10 -20
15 -37 10 -37 -5 0 -9 -7 -9 -15 0 -8 4 -15 9 -15 4 0 8 -6 8 -14 0 -8 6 -17
13 -19 9 -4 9 -6 -1 -6 -10 -1 -10 -6 -2 -21 8 -14 8 -20 0 -20 -6 0 -2 -13 8
-28 14 -19 18 -32 11 -44 -6 -11 -4 -21 7 -32 8 -9 12 -20 9 -26 -3 -5 0 -10
7 -10 10 0 10 -2 -1 -9 -9 -6 -10 -11 -2 -15 6 -4 9 -11 6 -16 -3 -5 3 -13 12
-19 13 -8 14 -10 4 -11 -11 0 -12 -3 -3 -12 7 -7 8 -17 2 -29 -7 -12 -5 -19 7
-23 9 -4 13 -9 10 -13 -4 -3 -2 -15 4 -26 7 -12 7 -17 1 -13 -6 4 -8 -2 -5
-14 3 -11 9 -23 14 -26 5 -3 9 -20 9 -39 0 -19 5 -37 10 -40 6 -4 8 -10 5 -15
-3 -5 -1 -11 5 -15 6 -4 7 -12 1 -22 -6 -11 -3 -22 10 -36 13 -15 16 -24 8
-33 -7 -8 -7 -14 1 -19 6 -3 8 -10 5 -15 -3 -4 1 -23 9 -41 10 -24 11 -39 4
-53 -7 -13 -7 -16 1 -12 11 7 26 -35 19 -56 -3 -7 2 -19 9 -27 8 -7 13 -23 13
-35 -2 -25 10 -66 19 -66 3 0 6 -16 5 -35 -1 -19 2 -35 8 -35 5 0 7 -4 3 -9
-3 -5 -1 -12 5 -16 7 -4 7 -12 0 -25 -7 -13 -5 -21 6 -31 10 -8 14 -24 12 -46
-2 -20 1 -34 9 -37 7 -3 12 -20 11 -39 -1 -19 2 -39 6 -46 7 -11 16 -51 19
-83 1 -10 5 -18 10 -18 4 0 6 -4 3 -9 -3 -5 8 -22 25 -39 22 -21 41 -30 63
-30 32 0 99 35 92 47 -3 4 -1 13 4 21 4 7 5 23 0 35 -5 12 -5 28 0 35 5 7 4
24 -1 37 -5 12 -5 23 -1 23 8 0 6 214 -1 235 -3 6 -1 18 3 25 5 7 4 24 -1 37
-5 12 -5 23 -1 23 8 0 7 133 -1 154 -3 7 -1 19 3 26 5 7 4 24 -1 37 -5 12 -5
23 -1 23 8 0 7 133 -1 154 -3 7 -1 19 3 26 5 7 4 24 -1 37 -5 12 -5 23 -1 23
8 0 7 133 -1 154 -3 7 -1 19 3 26 5 7 4 24 -1 37 -5 12 -5 23 -1 23 9 0 7 64
-2 78 -3 5 -1 14 4 22 4 7 4 24 -1 37 -5 12 -5 23 -1 23 8 0 7 133 -1 154 -3
7 -1 19 3 26 5 7 4 24 -1 37 -5 12 -5 23 -1 23 8 0 7 133 -1 154 -3 7 -1 19 3
26 5 7 4 24 -1 37 -5 12 -5 23 -1 23 9 0 7 64 -2 78 -3 5 -1 14 4 22 4 7 4 24
-1 37 -5 12 -5 23 -1 23 8 0 7 133 -1 154 -3 7 -1 19 3 26 5 7 4 24 -1 37 -5
12 -5 23 -1 23 8 0 7 133 -1 154 -3 7 -1 19 3 26 5 7 4 24 -1 37 -5 12 -5 23
-1 23 9 0 7 64 -2 78 -3 5 -1 14 4 22 4 7 4 24 -1 37 -5 12 -5 23 -1 23 8 0 7
133 -1 154 -3 7 -1 19 3 26 5 7 4 24 -1 37 -5 12 -5 23 -1 23 8 0 7 133 -1
154 -3 7 -1 19 3 26 5 7 4 24 -1 37 -5 12 -5 23 -1 23 9 0 8 58 -1 67 -4 3 -2
12 4 20 6 7 8 13 3 13 -5 1 15 11 44 24 29 12 50 24 48 27 -3 3 5 6 17 6 12 1
23 7 25 13 2 5 12 10 22 10 10 0 25 8 32 19 7 10 21 17 31 15 9 -1 14 2 11 8
-3 5 3 12 15 15 11 3 18 9 15 14 -3 5 2 9 10 9 9 0 25 9 36 20 12 12 26 18 32
14 8 -5 9 -2 5 10 -4 9 -3 15 1 12 14 -8 53 24 46 37 -4 7 -4 9 1 5 5 -5 14 1
22 12 8 11 18 20 23 20 12 0 65 53 62 63 -2 7 14 11 31 8 5 -1 6 3 3 8 -4 5
14 30 39 54 25 25 45 53 45 62 0 9 5 13 10 10 9 -6 14 8 11 27 0 5 4 7 10 5
12 -2 90 139 81 148 -3 3 0 5 7 5 7 0 10 4 7 9 -3 5 1 12 10 15 8 3 13 10 9
16 -3 5 1 20 9 32 8 13 15 25 15 28 0 3 2 12 5 20 3 8 6 26 8 40 2 14 8 24 14
23 10 -2 12 42 2 52 -8 8 3 55 12 50 12 -7 10 227 -1 242 -6 6 -9 20 -8 30 1
10 -3 31 -10 47 -6 16 -9 36 -7 43 3 8 2 12 -3 9 -5 -3 -14 8 -21 24 -7 17
-15 30 -19 30 -3 0 -17 16 -30 35 -13 19 -32 37 -42 40 -11 4 -17 11 -14 16 4
5 0 9 -9 9 -8 0 -16 4 -18 9 -1 5 -22 17 -45 28 -30 15 -45 17 -52 10 -8 -8
-11 -8 -11 0 0 7 -9 10 -20 8 -11 -2 -22 0 -25 5 -3 6 -16 5 -30 0 -14 -5 -25
-7 -25 -4 0 4 -6 1 -14 -5 -9 -7 -17 -8 -20 -2 -3 5 -15 7 -26 4 -11 -3 -17
-10 -13 -16 4 -6 0 -8 -10 -4 -10 3 -17 2 -17 -3 0 -6 -3 -9 -7 -8 -15 3 -58
-20 -77 -41 -11 -11 -26 -21 -34 -21 -9 0 -12 -6 -8 -16 3 -8 2 -13 -3 -10
-10 7 -51 -27 -51 -43 0 -6 -4 -11 -10 -11 -5 0 -10 -5 -10 -11 0 -5 -15 -24
-32 -41 -18 -17 -27 -28 -20 -24 20 12 14 -3 -13 -28 -13 -13 -21 -26 -17 -30
4 -4 -1 -12 -10 -17 -10 -5 -15 -16 -12 -24 4 -8 1 -15 -6 -15 -7 0 -10 -7 -6
-15 3 -8 2 -15 -2 -15 -11 0 -42 -59 -42 -80 0 -10 -5 -22 -10 -25 -6 -4 -8
-10 -5 -15 3 -5 0 -12 -6 -15 -5 -4 -8 -13 -5 -20 2 -7 -1 -16 -8 -18 -8 -3
-12 -17 -11 -31 2 -14 0 -24 -5 -21 -13 8 -19 -22 -7 -34 8 -8 8 -11 -1 -11
-6 0 -9 -6 -6 -14 3 -8 0 -17 -5 -21 -6 -3 -9 -10 -6 -15 3 -5 1 -11 -4 -15
-6 -3 -8 -12 -5 -20 3 -7 1 -22 -5 -33 -5 -10 -11 -37 -12 -60 -2 -24 -9 -44
-17 -47 -8 -3 -10 -10 -6 -17 11 -17 5 -80 -9 -97 -10 -12 -9 -13 3 -7 8 4 7
1 -3 -7 -12 -10 -14 -17 -8 -22 7 -4 8 -12 1 -24 -6 -12 -5 -22 2 -29 7 -7 8
-12 3 -12 -6 0 -9 -18 -9 -40 1 -22 -2 -40 -6 -40 -13 0 -18 -36 -8 -54 5 -9
5 -16 1 -16 -8 0 -8 -83 1 -106 3 -7 1 -16 -5 -19 -5 -4 -6 -11 -3 -17 5 -7 0
-9 -14 -6 -12 4 -20 2 -17 -2 3 -5 -4 -14 -15 -20 -11 -6 -20 -7 -20 -2 0 14
-41 7 -51 -9 -5 -8 -9 -10 -9 -5 0 5 -6 4 -13 -2 -6 -5 -21 -6 -32 -2 -25 9
-57 1 -48 -13 4 -6 -2 -8 -15 -5 -12 4 -22 2 -22 -3 0 -6 -8 -5 -19 1 -12 6
-22 6 -25 1 -3 -5 -21 -5 -41 -1 -19 4 -35 4 -35 0 0 -5 -13 -5 -30 0 -19 5
-30 5 -30 -1 0 -6 -7 -6 -17 -1 -10 5 -24 7 -30 5 -7 -3 -13 -1 -13 4 0 5 -8
9 -17 10 -10 0 -28 3 -40 6 -13 3 -25 1 -29 -5 -4 -7 -9 -6 -15 3 -4 7 -18 14
-31 14 -13 1 -36 8 -53 17 -16 8 -36 13 -42 11 -7 -3 -13 -1 -13 5 0 5 -18 15
-40 22 -23 8 -45 21 -50 29 -8 14 -9 14 -10 1 0 -12 -3 -11 -11 3 -5 9 -19 17
-29 17 -24 0 -28 38 -5 46 8 4 15 12 15 20 0 8 5 14 12 14 6 0 9 3 5 6 -3 3
12 22 34 42 21 20 39 43 39 52 0 8 9 21 20 28 12 7 18 17 15 22 -3 5 4 19 15
30 11 11 18 26 14 32 -4 7 -3 8 4 4 7 -4 12 -1 12 8 0 9 5 16 12 16 6 0 8 3 5
6 -3 4 0 16 8 28 8 11 15 29 15 39 0 12 4 16 13 11 6 -4 9 -4 5 1 -4 4 -1 23
7 42 8 20 15 44 15 54 0 11 5 19 11 19 6 0 9 7 6 15 -4 8 -2 17 3 20 5 3 7 12
3 21 -3 8 3 21 13 29 12 9 14 14 6 15 -8 0 -10 5 -5 13 4 6 6 23 4 36 -2 17 1
21 11 16 7 -5 10 -5 6 -1 -4 5 -3 18 2 31 5 14 5 26 -3 34 -6 6 -7 11 -1 11 5
0 9 11 9 25 0 14 -3 25 -7 25 -4 0 -3 11 2 25 6 16 6 26 -1 31 -6 3 -6 10 -1
17 5 7 6 21 2 32 -4 11 -4 30 1 42 5 14 4 25 -2 29 -8 4 -7 9 2 15 10 6 11 9
1 9 -6 0 -11 3 -10 8 0 4 -2 15 -7 25 -4 9 -5 26 -2 37 3 13 0 20 -10 20 -8 0
-12 4 -8 9 6 11 -15 61 -26 61 -5 0 -6 7 -3 15 4 8 1 15 -6 15 -6 0 -9 4 -5 9
3 5 1 12 -5 16 -6 4 -7 12 -4 18 4 7 4 9 0 5 -10 -8 -46 23 -46 40 0 8 -5 10
-12 6 -7 -4 -10 -4 -6 1 9 10 -10 47 -22 40 -4 -3 -24 11 -44 31 -20 20 -36
33 -36 28 0 -4 -9 1 -20 11 -10 9 -26 15 -35 12 -8 -4 -14 -1 -12 5 1 7 -5 13
-13 13 -30 3 -80 18 -80 24 0 3 -11 6 -25 6 -14 0 -25 -4 -25 -8 0 -4 -9 -3
-19 3 -12 6 -22 6 -25 1 -3 -5 -21 -5 -41 -1 -19 4 -35 4 -35 -1 0 -4 -7 -6
-15 -3 -8 4 -26 -1 -39 -9 -17 -12 -26 -13 -35 -4 -8 8 -11 8 -11 -2 0 -7 -4
-10 -9 -7 -5 3 -12 -1 -15 -10 -5 -13 -9 -14 -22 -3 -12 10 -14 10 -12 0 2 -7
-11 -21 -29 -30 -36 -20 -153 -134 -153 -150 0 -6 -5 -11 -11 -11 -5 0 -7 -4
-4 -10 3 -5 2 -10 -3 -10 -9 0 -37 -50 -34 -62 1 -5 -2 -8 -7 -8 -5 0 -7 -9
-4 -20 3 -11 1 -20 -5 -20 -6 0 -11 -8 -11 -17 -2 -51 -6 -73 -11 -73 -4 0 -7
-8 -8 -17 -4 -37 -1 -147 4 -154 2 -4 0 -10 -6 -14 -7 -4 -7 -12 0 -26 6 -10
7 -19 3 -19 -11 0 -9 -47 2 -57 4 -5 5 -2 0 6 -6 10 -4 12 4 7 7 -5 10 -14 7
-21 -2 -7 -2 -16 2 -19 10 -10 9 -46 -1 -46 -5 0 -3 -10 5 -22 19 -30 29 -68
17 -68 -5 0 -2 -11 7 -24 8 -14 16 -29 16 -33 0 -4 4 -18 9 -31 5 -13 9 -30 9
-38 0 -8 4 -14 10 -14 5 0 7 -6 4 -14 -3 -7 2 -16 11 -20 10 -3 15 -13 12 -20
-3 -8 1 -17 9 -20 8 -3 13 -9 13 -13 -3 -13 31 -83 40 -83 5 0 14 -13 21 -30
7 -16 17 -30 22 -30 5 0 6 -4 3 -10 -3 -5 -1 -10 6 -10 7 0 10 -3 6 -6 -3 -3
18 -30 47 -58 53 -53 74 -86 55 -86 -6 0 -7 -5 -4 -11 4 -6 0 -9 -11 -7 -11 2
-18 -2 -16 -9 1 -8 -8 -13 -22 -13 -13 0 -26 -5 -28 -11 -2 -5 -11 -11 -20
-12 -9 -2 -24 -9 -34 -17 -16 -13 -17 -13 -10 0 4 8 0 6 -8 -4 -9 -11 -16 -16
-16 -11 0 5 -5 4 -11 -2 -6 -6 -18 -9 -25 -6 -8 3 -14 0 -14 -7 0 -7 -8 -10
-20 -7 -11 3 -20 1 -20 -3 0 -5 -9 -7 -20 -5 -13 3 -18 0 -14 -7 5 -7 0 -9
-14 -6 -12 4 -22 2 -22 -3 0 -6 -6 -7 -17 -1 -12 7 -24 5 -40 -5 -13 -9 -34
-13 -48 -11 -14 3 -25 1 -25 -4 0 -5 -9 -4 -19 2 -12 6 -22 6 -25 1 -3 -5 -21
-5 -41 -1 -19 4 -35 4 -35 -1 0 -5 -11 -4 -24 1 -13 5 -26 6 -30 3 -3 -3 -13
-2 -23 2 -25 11 -44 16 -73 18 -14 1 -30 6 -37 10 -6 4 -18 4 -27 1 -9 -3 -16
-1 -16 6 0 6 -4 9 -9 6 -4 -3 -16 1 -27 8 -10 8 -24 12 -31 9 -7 -3 -13 0 -13
7 0 6 -6 10 -12 7 -7 -2 -25 4 -39 14 -14 10 -29 16 -32 12 -4 -3 -9 1 -13 10
-3 9 -12 13 -20 10 -7 -3 -17 2 -20 11 -3 9 -10 13 -15 10 -5 -3 -9 0 -9 6 0
6 -4 8 -10 5 -6 -3 -7 1 -4 9 3 9 9 16 13 16 3 0 12 9 19 21 11 17 11 20 0 13
-7 -5 11 15 40 43 28 28 52 56 52 62 0 15 25 42 34 36 3 -3 4 -2 1 1 -5 8 31
80 56 113 10 13 16 27 13 32 -3 5 0 9 6 9 6 0 9 4 5 9 -3 5 -1 12 5 16 6 4 8
11 5 16 -4 5 -2 9 4 9 5 0 11 10 13 23 2 12 8 21 14 20 7 -1 9 8 6 23 -3 17 1
29 13 38 13 9 15 15 6 20 -9 6 -9 11 0 22 6 8 9 14 5 14 -4 0 1 14 10 32 10
20 13 33 6 36 -12 4 0 56 19 78 9 11 9 14 0 14 -8 0 -9 5 -2 18 7 13 7 22 -1
30 -7 7 -8 16 -2 24 11 15 11 38 1 55 -4 6 -3 14 3 18 6 4 7 12 3 18 -11 17
-13 37 -3 37 4 0 5 12 3 28 -2 15 -5 33 -5 40 -1 6 -5 12 -9 12 -4 0 -6 9 -4
20 2 11 0 22 -5 25 -4 3 -6 15 -2 27 3 14 1 19 -6 14 -7 -4 -10 1 -7 14 2 11
-1 20 -6 20 -6 0 -7 5 -4 10 3 6 1 10 -5 10 -7 0 -10 7 -6 15 3 8 2 15 -3 15
-4 0 -14 12 -22 28 -8 15 -22 33 -32 40 -9 7 -14 19 -11 25 4 7 4 9 -1 5 -9
-8 -28 10 -38 36 -4 10 -13 16 -22 13 -8 -4 -16 2 -20 14 -4 12 -20 25 -36 31
-16 5 -29 14 -29 20 0 5 -4 7 -9 4 -5 -3 -14 1 -21 9 -6 7 -18 11 -26 8 -8 -3
-14 0 -14 6 0 6 -11 11 -24 11 -14 0 -31 6 -38 13 -13 12 -98 17 -98 5 0 -4
-13 -3 -30 2 -20 6 -30 5 -30 -2 0 -7 -5 -6 -14 1 -12 10 -19 8 -33 -6 -14
-14 -26 -17 -46 -12 -18 5 -26 3 -24 -4 1 -7 -6 -12 -16 -12 -10 0 -22 -6 -26
-13 -5 -8 -11 -13 -15 -13 -16 2 -23 -1 -50 -24 -16 -13 -34 -22 -40 -18 -6 3
-8 3 -4 -1 3 -4 -17 -30 -45 -57 -28 -27 -47 -49 -43 -49 5 0 2 -8 -7 -17 -15
-18 -17 -22 -17 -44 0 -5 -3 -8 -8 -5 -4 2 -12 -7 -19 -20 -8 -18 -8 -22 0
-17 8 4 8 2 0 -9 -7 -8 -10 -18 -6 -21 3 -4 2 -7 -4 -7 -5 0 -15 -11 -21 -25
-6 -14 -7 -25 -2 -25 5 0 5 -12 -1 -30 -6 -16 -15 -28 -19 -25 -5 3 -5 -8 0
-25 5 -18 5 -32 -1 -35 -5 -4 -5 -14 1 -26 6 -11 7 -19 1 -19 -5 0 -6 -14 -1
-35 4 -20 4 -38 -1 -41 -5 -3 -5 -13 1 -25 6 -10 7 -19 2 -19 -5 0 -9 -7 -9
-15 0 -8 4 -15 9 -15 5 0 7 -4 3 -9 -3 -5 -1 -12 5 -16 6 -4 8 -10 5 -15 -3
-5 -1 -11 4 -15 6 -3 7 -15 1 -29 -6 -17 -4 -28 8 -41 13 -14 13 -16 2 -10
-12 6 -13 5 -2 -6 6 -7 12 -25 12 -40 0 -15 7 -29 15 -33 9 -3 12 -12 9 -21
-4 -9 -2 -26 4 -38 9 -19 22 -52 27 -67 6 -20 31 -66 39 -71 5 -4 5 -12 2 -18
-4 -6 -3 -11 3 -11 5 0 13 -9 16 -20 3 -11 13 -26 20 -34 8 -8 16 -20 17 -27
2 -8 15 -26 30 -40 15 -15 25 -29 21 -32 -9 -9 49 -67 60 -60 6 3 7 1 3 -5 -4
-7 -2 -12 3 -12 6 0 11 -7 11 -16 0 -8 4 -13 9 -9 6 3 15 -3 20 -14 13 -23 -9
-47 -34 -37 -9 3 -15 0 -15 -9 0 -13 -5 -16 -25 -15 -3 1 -13 -7 -22 -15 -13
-13 -18 -14 -24 -3 -7 10 -9 10 -9 0 0 -12 -58 -42 -112 -57 -5 -2 -11 -4 -15
-5 -5 -1 -12 -2 -16 -1 -4 1 -17 -4 -28 -10 -11 -6 -35 -11 -52 -11 -18 0 -38
-6 -46 -12 -12 -9 -13 -8 -6 4 8 13 6 13 -8 2 -11 -9 -37 -13 -77 -10 -33 1
-60 -1 -60 -5 0 -4 -9 -3 -19 3 -11 5 -22 6 -25 1 -5 -8 -41 -5 -74 5 -7 2
-13 3 -15 2 -1 -1 -12 4 -24 11 -17 9 -23 9 -23 0 0 -8 -4 -8 -15 1 -8 7 -15
9 -15 5 0 -4 -7 -2 -15 5 -9 7 -18 10 -22 7 -3 -4 -12 -2 -20 4 -10 9 -13 8
-13 -2 0 -8 -6 -4 -15 8 -9 13 -22 19 -33 16 -11 -2 -26 3 -35 12 -9 8 -19 15
-22 14 -11 -2 -65 24 -65 32 0 5 -7 6 -15 3 -8 -4 -17 1 -21 9 -3 9 -12 13
-20 10 -8 -3 -14 0 -14 6 0 6 -7 11 -16 11 -8 0 -12 5 -9 10 3 6 -3 10 -15 10
-12 0 -18 5 -15 10 3 6 1 10 -5 10 -6 0 -21 11 -34 25 -13 14 -28 25 -34 25
-6 0 -15 7 -20 16 -5 9 -11 14 -14 12 -6 -3 -62 53 -62 62 0 7 -16 28 -53 65
-17 18 -29 36 -26 39 4 3 1 6 -6 6 -7 0 -9 5 -6 10 3 6 0 13 -8 16 -9 3 -18
16 -21 30 -4 13 -11 24 -16 24 -5 0 -7 7 -4 15 4 8 1 15 -6 15 -6 0 -8 5 -5
10 3 6 2 10 -3 10 -12 0 -33 56 -25 64 4 3 0 6 -7 6 -7 0 -11 3 -7 6 3 4 -1
13 -9 22 -9 8 -13 23 -11 33 3 10 1 19 -5 21 -5 2 -11 24 -14 48 -2 25 -11 50
-20 57 -8 6 -11 14 -6 17 5 3 6 28 2 56 -4 31 -3 50 4 50 5 0 1 7 -10 15 -10
8 -15 15 -11 15 4 0 3 8 -2 19 -6 10 -7 21 -3 25 3 4 7 19 8 34 1 15 2 27 4
27 1 0 3 14 5 30 2 17 6 38 10 48 4 10 3 17 -5 17 -6 0 -8 5 -4 11 4 7 7 31 7
55 0 24 4 41 8 38 5 -3 10 3 10 13 1 10 2 25 3 33 1 8 -2 23 -7 33 -5 12 -3
17 8 17 9 0 13 5 10 10 -3 6 -2 10 4 10 5 0 8 11 5 25 -2 14 0 25 5 25 5 0 12
7 15 16 3 9 2 12 -5 8 -6 -3 -4 8 5 24 9 17 17 39 19 49 6 28 29 73 39 73 4 0
7 3 7 8 -1 4 0 10 1 15 4 12 7 26 9 38 0 5 5 8 10 5 5 -3 12 1 15 10 9 23 8
26 -6 18 -7 -3 -1 5 15 18 15 14 27 30 27 37 0 6 5 11 10 11 6 0 10 4 10 10 0
5 13 23 30 40 16 17 30 36 30 42 0 6 3 9 6 6 3 -3 36 25 74 62 38 37 71 65 74
62 3 -3 6 0 6 6 0 7 7 9 18 5 9 -3 14 -3 10 2 -11 12 31 45 49 38 11 -4 14 -2
9 5 -4 7 -2 12 3 12 18 0 25 3 74 32 27 16 59 29 72 30 13 1 22 5 19 9 -2 4 0
10 6 14 5 3 10 1 10 -5 0 -7 7 -7 23 2 12 7 27 13 32 14 6 0 23 6 40 13 16 7
37 10 47 7 10 -2 24 2 32 9 7 7 27 12 44 11 18 -1 32 1 32 5 0 9 27 6 36 -4 4
-4 13 -2 20 4 8 7 14 7 19 -1 5 -8 10 -8 20 0 10 8 15 8 20 0 5 -8 11 -7 22 2
19 15 23 15 34 -4 7 -10 9 -10 9 0 0 8 5 10 12 6 17 -11 80 -11 95 -1 7 5 18
5 25 1 16 -11 36 -11 71 -2 15 3 27 4 27 0 0 -14 48 -29 64 -20 10 6 16 5 16
-2 0 -6 10 -8 25 -4 17 4 25 2 25 -7 0 -7 3 -9 7 -6 3 4 12 2 20 -4 10 -9 13
-8 13 0 0 7 5 9 13 4 6 -4 20 -6 31 -4 10 1 15 -2 12 -7 -8 -13 24 -21 49 -12
12 4 25 1 34 -7 8 -8 22 -12 32 -10 11 3 19 1 19 -5 0 -6 6 -8 14 -5 8 3 16 2
18 -3 2 -6 17 -11 33 -12 17 -1 38 -8 47 -16 12 -10 18 -11 18 -4 0 9 6 9 25
0 14 -6 25 -15 25 -20 0 -5 9 -4 20 2 14 8 20 8 20 0 0 -6 4 -8 10 -5 5 3 20
-1 32 -9 27 -19 41 -21 33 -3 -4 6 0 4 9 -7 8 -10 19 -15 25 -11 6 3 11 1 11
-5 0 -6 4 -9 9 -5 5 3 16 -1 24 -9 8 -8 17 -13 19 -10 8 7 117 -29 112 -37 -2
-4 10 -4 27 1 26 8 29 7 19 -5 -10 -12 -8 -13 9 -10 11 2 23 0 26 -5 3 -4 14
-6 25 -3 12 3 20 0 20 -6 0 -7 5 -9 10 -6 6 3 10 1 10 -5 0 -6 4 -8 10 -5 5 3
19 1 29 -5 11 -6 34 -12 52 -14 17 -2 35 -10 40 -17 7 -12 9 -12 9 0 0 11 3
11 15 1 8 -7 15 -9 15 -4 0 5 5 2 10 -8 6 -10 18 -14 30 -11 11 3 26 0 33 -6
8 -6 17 -8 20 -4 4 3 7 2 7 -3 0 -6 10 -11 23 -11 29 -2 105 -21 127 -33 11
-6 21 -5 30 3 7 7 10 8 8 2 -3 -5 0 -16 8 -23 9 -8 14 -9 14 -2 0 6 5 8 13 3
6 -4 22 -6 35 -4 12 1 22 -3 22 -9 0 -6 5 -8 10 -5 6 3 10 1 10 -6 0 -8 4 -8
15 1 8 7 15 8 15 3 0 -5 8 -9 18 -10 19 -1 71 -12 89 -18 6 -2 14 1 17 8 3 9
5 9 5 0 1 -7 10 -13 20 -13 11 0 22 -4 25 -8 6 -10 42 -9 52 1 4 4 15 0 25 -9
12 -10 29 -15 49 -12 16 3 30 1 30 -4 0 -5 11 -6 25 -2 18 4 32 1 45 -11 11
-10 20 -13 20 -7 0 8 7 9 25 2 15 -6 26 -6 30 1 4 5 12 6 18 2 7 -4 21 -7 33
-8 11 0 29 -7 39 -15 11 -8 16 -10 12 -3 -7 11 23 11 86 -2 9 -2 17 1 17 6 0
5 10 5 23 0 13 -5 30 -5 37 -1 8 5 17 7 22 4 14 -9 78 -11 78 -2 0 4 11 4 23
-1 13 -5 30 -5 37 -1 8 5 17 7 22 4 14 -9 78 -11 78 -2 0 4 11 4 23 -1 13 -5
30 -5 37 -1 8 5 18 6 23 3 17 -10 146 -3 185 11 22 8 44 11 50 7 15 -9 51 -6
83 7 15 6 40 10 56 10 39 -1 75 11 67 24 -4 7 0 7 12 1 22 -11 34 -11 52 0 6
5 17 5 22 2 6 -3 10 -2 10 4 0 5 8 10 18 9 27 0 63 10 78 23 11 9 14 9 14 0 0
-9 5 -9 20 -1 11 6 20 8 20 5 0 -3 10 1 21 9 12 8 28 12 35 9 8 -3 14 0 14 7
0 7 7 10 15 6 8 -3 15 0 15 6 0 6 3 9 6 5 4 -3 24 3 45 14 21 10 42 18 46 17
16 -4 198 94 219 118 12 13 23 22 26 19 2 -3 5 17 7 44 2 40 -2 53 -26 78 -24
25 -33 28 -60 22 -22 -4 -33 -3 -33 5 0 6 -10 0 -21 -14 -11 -14 -18 -18 -14
-10 4 8 0 7 -9 -4 -8 -10 -19 -15 -25 -11 -6 3 -11 0 -11 -9 0 -9 -8 -13 -24
-12 -15 2 -27 -3 -31 -12 -3 -8 -8 -12 -12 -8 -3 3 -14 -1 -24 -10 -10 -9 -25
-14 -34 -11 -8 4 -14 3 -12 -1 1 -4 -1 -7 -4 -7 -3 0 -13 -6 -22 -14 -10 -7
-17 -11 -17 -8 0 3 -29 -5 -64 -18 -35 -13 -67 -21 -70 -17 -3 3 -6 0 -6 -6 0
-6 -8 -11 -17 -11 -40 -1 -53 -5 -53 -14 0 -5 -11 -7 -25 -5 -14 3 -29 0 -35
-7 -6 -7 -35 -13 -66 -14 -35 0 -61 -7 -70 -16 -9 -8 -20 -12 -26 -9 -15 10
-78 10 -81 1 -1 -5 -18 -11 -37 -12 -19 -2 -37 -4 -40 -5 -3 -1 -31 -1 -63 0
-32 1 -64 -4 -72 -10 -9 -7 -15 -8 -20 -1 -4 7 -16 6 -35 -4 -19 -10 -31 -11
-35 -4 -5 7 -11 7 -20 -1 -10 -8 -15 -8 -20 0 -5 8 -10 8 -20 0 -10 -8 -15 -8
-20 0 -5 8 -10 8 -20 0 -10 -8 -15 -8 -20 0 -5 8 -10 8 -20 0 -10 -8 -15 -8
-20 0 -5 8 -10 8 -20 0 -7 -6 -16 -7 -19 -2 -3 5 -23 7 -46 5 -23 -2 -39 1
-36 6 3 5 -3 7 -14 4 -13 -3 -20 0 -20 8 0 9 -3 10 -10 3 -6 -6 -33 -8 -65 -4
-31 3 -55 2 -55 -3 0 -5 -6 -5 -13 1 -8 7 -18 7 -27 2 -9 -5 -19 -5 -26 1 -22
18 -144 30 -144 14 0 -5 -7 -1 -15 9 -8 11 -18 17 -21 13 -4 -4 -13 -2 -20 4
-8 6 -14 6 -18 0 -4 -5 -18 -6 -34 -2 -15 4 -33 6 -39 4 -7 -3 -13 0 -13 7 0
6 -4 8 -10 5 -5 -3 -10 -2 -10 3 0 6 -14 7 -35 2 -19 -4 -33 -4 -30 1 7 10
-59 23 -79 16 -8 -3 -17 1 -20 10 -4 8 -13 13 -21 9 -8 -3 -17 -1 -20 5 -4 5
-11 7 -16 3 -5 -3 -15 -1 -22 4 -7 6 -28 11 -47 13 -19 2 -41 7 -47 12 -7 5
-19 7 -28 4 -8 -4 -17 -2 -20 4 -4 5 -11 7 -16 4 -5 -4 -9 1 -9 9 0 12 -5 14
-23 7 -18 -7 -26 -5 -34 8 -8 13 -20 17 -42 13 -17 -2 -31 0 -31 5 0 6 -12 10
-27 11 -16 0 -41 6 -58 13 -30 12 -39 15 -63 17 -8 1 -10 7 -6 15 6 9 5 9 -7
0 -12 -10 -21 -8 -46 7 -23 13 -33 16 -37 7 -3 -9 -5 -8 -5 1 -1 7 -5 10 -11
7 -5 -3 -10 -1 -10 5 0 6 -10 10 -22 8 -13 -2 -32 5 -42 14 -14 12 -22 15 -27
7 -5 -8 -8 -8 -13 0 -4 6 -12 9 -17 6 -5 -4 -9 -1 -9 6 0 7 -3 9 -7 6 -3 -4
-12 -2 -20 4 -7 6 -13 8 -13 4 0 -4 -8 -1 -17 6 -15 12 -16 12 -8 -1 5 -9 0
-8 -13 4 -15 13 -22 15 -22 6 0 -10 -3 -10 -16 1 -9 7 -28 15 -43 17 -14 2
-27 7 -29 12 -2 5 -9 7 -17 4 -7 -3 -16 -1 -19 5 -4 6 -13 8 -21 4 -8 -3 -15
0 -15 6 0 6 -3 10 -7 9 -16 -4 -83 13 -79 20 2 4 -4 8 -15 8 -10 0 -19 -5 -19
-11 0 -5 -6 -3 -13 5 -7 8 -25 17 -42 18 -16 2 -37 10 -47 19 -10 9 -18 11
-22 4 -4 -7 -15 -7 -30 -1 -13 5 -27 6 -32 2 -4 -4 -4 -2 -1 4 4 7 0 14 -8 18
-8 3 -15 2 -15 -3 0 -4 -7 -8 -15 -8 -8 0 -15 5 -15 10 0 6 -3 8 -6 4 -4 -3
-19 0 -34 8 -15 8 -30 12 -33 9 -8 -9 -66 -11 -62 -3 3 4 -13 11 -35 17 -22 5
-40 6 -40 2 0 -5 -13 -5 -30 0 -19 5 -32 5 -36 -2 -4 -6 -10 -5 -15 3 -11 18
-369 24 -369 7z m2195 -1000 c6 -1 9 -7 7 -11 -1 -4 7 -3 18 3 15 8 20 8 20
-2 0 -9 3 -9 10 2 6 10 10 11 10 3 0 -7 6 -13 13 -13 7 0 23 -9 34 -19 12 -11
23 -18 26 -15 2 3 27 -16 53 -42 27 -26 42 -44 34 -39 -8 5 -5 -4 8 -19 12
-16 22 -36 22 -45 0 -10 6 -25 14 -36 7 -10 11 -32 10 -48 -2 -17 0 -35 5 -41
4 -6 9 -28 9 -49 1 -21 4 -42 7 -47 4 -6 2 -10 -4 -10 -5 0 -8 -9 -6 -20 2
-11 -1 -20 -7 -20 -6 0 -9 -3 -5 -6 3 -3 2 -16 -3 -29 -5 -14 -5 -26 3 -34 8
-8 8 -14 0 -22 -6 -6 -9 -18 -6 -25 3 -8 0 -14 -6 -14 -6 0 -11 -17 -11 -39 0
-22 -6 -46 -14 -53 -9 -10 -11 -20 -4 -31 5 -10 5 -17 0 -17 -5 0 -24 -31 -41
-70 -18 -38 -36 -70 -41 -70 -4 0 -7 -8 -6 -17 0 -10 -4 -17 -11 -16 -7 2 -10
-4 -7 -12 4 -8 1 -15 -5 -15 -6 0 -11 -7 -11 -15 0 -8 -9 -19 -20 -25 -11 -6
-18 -15 -15 -20 3 -5 -12 -26 -34 -47 -22 -20 -37 -41 -34 -47 3 -6 3 -8 -2
-4 -4 4 -16 -1 -25 -12 -17 -20 -18 -20 -54 13 -20 18 -36 39 -36 45 0 7 -5
11 -11 9 -6 -1 -13 6 -14 15 -2 9 -14 28 -27 41 -14 14 -30 38 -37 56 -8 17
-18 28 -24 24 -6 -4 -7 -1 -2 7 4 7 3 15 -2 19 -14 8 -55 91 -46 91 4 0 -2 7
-13 16 -10 8 -12 12 -4 8 13 -7 13 -5 2 8 -10 13 -10 17 0 21 8 3 6 6 -6 6
-14 1 -17 7 -14 25 3 16 0 27 -10 31 -8 3 -12 8 -9 12 4 3 2 12 -4 20 -8 8 -8
13 -1 13 6 0 2 17 -8 37 -10 21 -15 40 -12 43 10 8 10 50 0 50 -5 0 -4 8 1 18
6 11 6 24 1 32 -6 9 -5 17 3 22 8 5 8 8 1 8 -11 0 -9 68 1 79 3 2 0 10 -6 18
-6 7 -8 13 -3 13 5 0 8 20 8 45 -1 28 2 44 9 42 6 -1 12 5 13 13 3 31 17 60
26 54 5 -3 9 0 7 7 -3 27 1 40 11 34 9 -6 14 8 11 28 -1 5 3 6 8 3 5 -4 16 2
23 12 7 11 21 18 31 16 9 -1 15 2 12 7 -7 10 58 39 86 39 11 0 19 5 19 11 0 8
5 8 15 -1 12 -10 16 -9 21 4 4 11 11 13 22 7 10 -5 22 -11 27 -13z m-1405 -4
c0 4 9 2 19 -4 14 -7 22 -7 26 0 4 6 17 3 34 -10 16 -10 31 -17 35 -13 3 3 6
1 6 -5 0 -7 7 -12 15 -12 8 0 33 -19 55 -41 37 -38 44 -51 41 -71 0 -5 3 -8 8
-8 10 0 37 -69 33 -82 -1 -5 2 -8 6 -8 4 0 8 -9 8 -20 0 -11 -5 -20 -10 -20
-5 0 -2 -8 7 -18 23 -26 26 -131 4 -144 -13 -7 -15 -13 -7 -28 6 -12 7 -21 0
-25 -5 -3 -6 -15 -1 -27 10 -27 2 -68 -13 -68 -8 0 -11 -11 -8 -30 3 -19 0
-30 -8 -30 -7 0 -10 -8 -7 -20 3 -11 1 -23 -4 -26 -5 -3 -7 -10 -4 -15 4 -5 1
-9 -4 -9 -6 0 -11 -8 -11 -18 0 -20 -66 -148 -81 -157 -5 -4 -7 -11 -3 -16 3
-6 -3 -17 -15 -25 -12 -9 -19 -20 -15 -25 3 -6 -2 -9 -12 -7 -13 2 -18 -2 -16
-13 1 -9 -23 -42 -54 -73 l-56 -57 -39 42 c-21 23 -39 45 -39 50 0 5 -5 9 -11
9 -5 0 -7 5 -4 10 3 6 -1 10 -10 10 -9 0 -14 4 -10 9 3 6 -4 15 -15 21 -11 6
-18 15 -15 20 3 4 -1 14 -8 22 -7 7 -16 21 -20 31 -4 10 -11 15 -17 12 -6 -3
-7 1 -4 9 3 9 1 16 -5 16 -6 0 -8 7 -4 17 4 10 2 14 -4 10 -7 -4 -14 5 -18 23
-4 16 -11 32 -16 35 -5 4 -9 17 -9 30 0 13 -5 27 -11 31 -6 3 -9 14 -6 24 3
11 -1 21 -8 24 -8 3 -12 16 -11 30 2 14 0 26 -5 26 -5 0 -6 7 -3 15 3 8 -1 24
-10 36 -11 16 -12 27 -5 41 7 12 6 18 -1 18 -7 0 -8 6 -2 18 7 15 9 38 2 45
-7 7 -5 64 3 75 6 7 6 12 0 12 -5 0 -10 7 -10 15 0 8 3 15 7 15 4 0 5 13 2 29
-2 16 2 39 9 52 7 13 12 30 11 37 -2 7 7 26 18 42 12 17 18 34 15 40 -3 5 1
10 9 10 9 0 16 8 16 17 0 9 3 14 6 11 3 -4 14 1 24 10 33 31 64 52 77 52 7 0
13 4 13 9 0 6 8 10 18 11 9 0 34 1 55 1 20 1 37 6 37 11 0 6 7 5 15 -2 8 -7
15 -9 15 -6z m3120 -124 c0 12 2 12 9 2 4 -7 23 -21 42 -30 19 -10 33 -23 32
-30 -2 -7 4 -12 13 -12 8 0 13 -4 10 -9 -3 -5 1 -12 9 -15 13 -5 14 -10 4 -27
-7 -14 -7 -19 0 -15 19 12 36 -125 17 -144 -7 -7 -7 -10 0 -10 6 0 11 -7 11
-15 0 -8 -3 -15 -6 -15 -3 0 -5 -21 -4 -47 1 -27 -4 -57 -10 -68 -7 -11 -12
-30 -11 -42 1 -15 -5 -23 -15 -24 -10 0 -11 -2 -4 -6 9 -3 10 -10 3 -22 -5
-10 -6 -22 -2 -26 4 -5 1 -5 -5 -1 -13 7 -17 -4 -14 -31 1 -7 -3 -13 -9 -13
-5 0 -10 -9 -10 -19 0 -11 -4 -21 -9 -23 -5 -1 -11 -10 -13 -18 -2 -8 -11 -21
-21 -28 -9 -7 -15 -18 -12 -23 4 -5 1 -9 -5 -9 -6 0 -8 -4 -5 -10 3 -5 1 -10
-5 -10 -6 0 -8 -5 -4 -12 4 -7 3 -8 -4 -4 -6 4 -17 -5 -26 -22 -8 -16 -22 -34
-30 -41 -9 -7 -13 -18 -9 -25 3 -6 3 -8 -2 -4 -4 4 -19 -5 -33 -20 -14 -15
-30 -26 -34 -25 -4 2 -7 0 -6 -5 3 -11 -60 -70 -93 -87 -15 -8 -32 -21 -36
-27 -4 -7 -17 -20 -27 -28 -18 -13 -19 -13 -12 0 4 9 1 8 -7 -2 -8 -10 -20
-18 -27 -18 -7 0 -10 -3 -7 -7 7 -7 -51 -38 -65 -35 -5 1 -8 -2 -8 -7 0 -12
-29 -23 -41 -15 -5 3 -5 12 1 23 6 12 5 22 -2 29 -6 6 -7 16 -2 23 10 18 12
79 2 79 -5 0 -1 14 7 30 9 17 13 35 10 40 -3 5 -1 11 5 15 7 4 7 12 0 26 -7
11 -7 19 -1 19 10 0 9 25 -2 36 -4 4 2 14 14 22 16 11 17 17 8 28 -6 8 -8 14
-3 14 5 0 10 12 10 28 2 24 10 67 14 67 1 0 3 8 5 18 2 9 -1 17 -5 17 -5 0 -1
15 8 33 9 17 15 43 13 56 -2 15 1 21 8 17 7 -5 11 3 12 18 1 25 3 36 9 54 1 4
2 10 1 15 0 4 4 7 10 7 5 0 8 4 4 9 -3 5 -1 12 5 16 5 3 10 15 10 26 0 10 5
19 10 19 6 0 9 3 9 8 -4 21 3 42 17 56 8 9 13 16 9 16 -8 0 24 61 41 78 8 7
14 17 14 21 0 5 31 40 69 79 50 51 72 67 80 59 8 -8 11 -8 11 1 0 16 63 32 72
18 5 -7 8 -6 8 4z"/>
<path d="M1960 2993 c0 -4 -12 -9 -26 -9 -14 -1 -37 -14 -52 -29 -26 -26 -27
-29 -22 -117 3 -49 2 -92 -3 -95 -4 -2 -2 -13 3 -24 6 -10 7 -19 3 -19 -4 0
-6 -34 -3 -76 3 -42 2 -78 -2 -81 -5 -2 -3 -13 2 -24 8 -14 7 -19 -1 -19 -8 0
-8 -4 -1 -13 7 -8 7 -18 2 -27 -5 -9 -5 -19 2 -27 7 -9 7 -13 -2 -13 -10 0
-10 -3 -1 -14 8 -10 9 -16 1 -21 -7 -4 -7 -12 0 -26 8 -14 7 -19 -1 -19 -8 0
-8 -4 -1 -13 7 -8 7 -18 2 -27 -5 -9 -5 -19 2 -27 7 -9 7 -13 -2 -13 -10 0
-10 -3 -1 -14 8 -10 9 -16 1 -21 -7 -4 -7 -12 0 -26 8 -14 7 -19 -1 -19 -8 0
-8 -4 -1 -13 7 -8 7 -18 2 -27 -5 -9 -5 -19 2 -27 7 -9 7 -13 -2 -13 -10 0
-10 -3 -1 -14 8 -10 9 -16 1 -21 -7 -4 -7 -12 0 -26 8 -14 7 -19 -1 -19 -8 0
-8 -4 -1 -13 7 -8 7 -18 2 -27 -5 -9 -5 -19 2 -27 7 -9 7 -13 0 -13 -6 0 -7
-13 -2 -35 4 -20 4 -38 -1 -41 -5 -3 -5 -13 1 -25 6 -10 7 -19 3 -19 -4 0 -6
-43 -3 -96 3 -53 2 -98 -3 -101 -4 -2 -2 -13 3 -24 6 -10 7 -19 3 -19 -4 0 -6
-43 -3 -96 3 -53 2 -98 -3 -101 -4 -2 -2 -13 3 -24 6 -10 7 -19 2 -19 -4 0 -5
-25 -2 -56 3 -30 3 -57 -2 -60 -4 -3 -3 -14 2 -25 6 -10 7 -19 3 -19 -4 0 -6
-43 -3 -96 3 -53 2 -98 -3 -101 -4 -2 -2 -13 3 -24 6 -10 7 -19 3 -19 -4 0 -6
-43 -3 -96 3 -53 2 -98 -3 -101 -4 -2 -2 -13 3 -24 6 -10 7 -19 3 -19 -4 0 -6
-43 -3 -96 3 -53 2 -98 -3 -101 -4 -2 -2 -13 3 -24 6 -10 7 -19 3 -19 -12 0
-7 -110 6 -144 7 -16 10 -31 7 -33 -2 -3 3 -13 12 -24 9 -11 18 -24 18 -29 1
-6 2 -14 3 -19 2 -18 147 -157 159 -153 6 2 15 -3 18 -12 3 -8 12 -12 19 -9 8
2 24 -2 36 -10 12 -9 28 -13 35 -10 8 3 20 1 27 -4 22 -17 133 -15 147 2 9 11
15 12 20 5 7 -12 60 6 60 20 0 4 11 6 25 5 14 -2 23 2 22 8 -1 7 6 11 17 9 10
-2 15 1 12 6 -3 5 13 19 34 31 22 12 40 29 40 37 0 8 5 14 10 14 6 0 10 6 10
13 0 7 9 18 20 25 12 7 18 16 15 21 -2 5 2 14 10 21 7 6 11 18 8 26 -3 7 2 17
11 20 9 3 13 10 10 15 -3 5 0 9 7 9 9 0 9 3 0 14 -8 9 -8 16 -2 20 5 4 8 15 6
26 -2 11 1 20 7 20 6 0 8 9 5 20 -3 11 -2 20 2 20 4 0 4 25 1 55 -3 30 -2 62
3 71 6 10 5 19 -1 23 -7 4 -8 12 -2 21 5 8 5 21 -1 32 -7 13 -6 18 2 18 9 0 9
3 0 14 -7 8 -8 17 -4 19 10 6 10 48 0 64 -4 7 -3 14 2 18 6 3 7 15 2 28 -6 14
-5 30 1 41 7 13 7 20 0 25 -7 4 -8 12 -2 21 5 8 5 21 -1 32 -5 10 -6 18 -2 18
4 0 8 11 8 25 0 14 -4 25 -8 25 -4 0 -3 8 2 18 6 11 6 24 0 35 -6 9 -6 17 -2
17 4 0 8 11 8 25 0 14 -4 25 -8 25 -4 0 -3 9 3 19 7 14 7 22 0 26 -6 4 -7 12
-3 18 4 6 7 21 7 32 0 11 -3 26 -7 32 -4 6 -3 14 2 18 6 3 7 15 2 28 -6 14 -5
30 1 41 7 13 7 20 0 25 -7 4 -8 12 -2 21 5 8 5 21 -1 32 -5 10 -6 18 -2 18 4
0 8 11 8 25 0 14 -4 25 -8 25 -4 0 -3 8 2 18 6 11 6 24 0 35 -6 9 -6 17 -2 17
4 0 8 11 8 25 0 14 -4 25 -8 25 -4 0 -3 9 3 19 7 14 7 22 0 26 -6 4 -7 12 -3
18 9 15 9 49 0 64 -4 6 -3 14 2 18 6 3 7 15 2 28 -6 14 -5 30 1 41 7 13 7 20
0 25 -7 4 -8 12 -2 21 5 8 5 21 -1 32 -5 10 -6 18 -2 18 4 0 8 11 8 25 0 14
-4 25 -8 25 -4 0 -3 8 2 18 6 11 6 24 0 35 -6 9 -6 17 -2 17 4 0 8 11 8 25 0
14 -4 25 -8 25 -4 0 -3 9 3 19 7 14 7 22 0 26 -6 4 -7 12 -3 18 9 15 9 49 0
64 -4 6 -3 14 2 18 6 3 7 15 2 28 -6 14 -5 30 1 41 7 13 7 20 0 25 -7 4 -8 12
-2 21 5 8 5 21 -1 32 -5 10 -6 18 -2 18 4 0 8 11 8 25 0 14 -4 25 -8 25 -4 0
-3 8 2 18 6 11 6 24 0 35 -6 9 -6 17 -2 17 4 0 8 11 8 25 0 14 -4 25 -8 25 -4
0 -3 9 3 19 7 14 7 22 0 26 -6 4 -7 12 -3 18 9 15 9 49 0 64 -4 6 -3 14 2 18
6 3 7 15 2 28 -6 14 -5 30 1 41 7 13 7 20 0 25 -7 4 -8 12 -2 21 5 8 5 21 -1
32 -6 12 -6 18 0 18 12 0 -3 56 -21 78 -11 13 -11 15 2 8 8 -5 -1 7 -20 26
-19 19 -39 32 -45 29 -5 -3 -18 -4 -27 -3 -21 4 -67 -28 -68 -45 0 -7 -8 -13
-17 -14 -10 0 -13 -2 -8 -5 10 -4 11 -161 1 -171 -3 -3 -1 -14 5 -24 5 -11 6
-19 2 -19 -4 0 -6 -43 -3 -96 3 -53 2 -98 -3 -101 -4 -2 -2 -13 3 -24 6 -10 7
-19 3 -19 -4 0 -6 -43 -3 -96 3 -53 2 -98 -3 -101 -4 -2 -2 -13 3 -24 6 -10 7
-19 3 -19 -4 0 -6 -43 -3 -96 3 -53 2 -98 -3 -101 -4 -2 -2 -13 3 -24 6 -10 7
-19 3 -19 -4 0 -6 -43 -3 -96 3 -53 2 -98 -3 -101 -4 -2 -2 -13 3 -24 6 -10 7
-19 3 -19 -4 0 -6 -43 -3 -96 3 -53 2 -98 -3 -101 -4 -2 -2 -13 3 -24 6 -10 7
-19 3 -19 -4 0 -6 -43 -3 -96 3 -53 2 -98 -3 -101 -4 -2 -2 -13 3 -24 6 -10 7
-19 3 -19 -4 0 -6 -43 -3 -96 3 -53 2 -98 -3 -101 -4 -2 -2 -13 3 -24 6 -10 7
-19 3 -19 -4 0 -6 -43 -3 -96 3 -53 2 -98 -3 -101 -4 -2 -2 -13 3 -24 6 -10 7
-19 3 -19 -4 0 -6 -34 -3 -76 3 -42 2 -78 -2 -81 -5 -2 -3 -13 2 -24 6 -10 7
-19 3 -19 -10 0 -9 -52 1 -68 4 -7 2 -12 -5 -12 -9 0 -9 -3 0 -14 8 -10 9 -16
1 -21 -7 -4 -7 -12 0 -26 8 -13 7 -19 0 -19 -6 0 -8 -5 -5 -11 9 -13 -14 -99
-26 -99 -5 0 -9 -5 -9 -11 0 -13 -39 -51 -76 -76 -34 -22 -81 -29 -129 -19
-11 2 -28 -1 -38 -6 -12 -6 -19 -5 -23 6 -3 8 -14 13 -26 11 -11 -3 -18 -2
-15 2 4 3 -9 18 -28 33 -19 15 -32 30 -28 34 3 3 1 6 -6 6 -7 0 -10 4 -7 9 3
5 -1 12 -10 15 -10 4 -14 14 -11 25 3 11 -1 28 -8 39 -8 10 -12 30 -11 45 2
15 -1 27 -5 27 -5 0 -4 11 1 25 6 16 6 26 -1 31 -7 4 -6 10 1 19 8 10 8 15 0
20 -8 5 -8 10 0 20 8 10 8 15 0 20 -8 5 -8 10 0 20 8 9 8 15 0 20 -6 3 -7 12
-3 18 9 15 12 47 4 47 -3 0 -6 11 -6 25 0 14 2 25 5 25 8 0 5 75 -4 88 -4 7
-4 17 0 24 10 16 12 78 2 78 -4 0 -3 11 2 25 6 16 6 26 -1 31 -7 4 -6 10 1 19
8 10 8 15 0 20 -8 5 -8 10 0 20 8 10 8 15 0 20 -8 5 -8 10 0 20 8 9 8 15 0 20
-6 3 -7 12 -3 18 9 15 12 47 4 47 -3 0 -6 11 -6 25 0 14 2 25 5 25 8 0 5 75
-4 88 -4 7 -4 17 0 24 10 16 12 78 2 78 -4 0 -3 11 2 25 6 16 6 26 -1 31 -7 4
-6 10 1 19 8 10 8 15 0 20 -8 5 -8 10 0 20 8 10 8 15 0 20 -8 5 -8 10 0 20 8
9 8 15 0 20 -6 3 -7 12 -3 18 9 15 12 47 4 47 -3 0 -6 11 -6 25 0 14 2 25 5
25 8 0 5 75 -4 88 -4 7 -4 17 0 24 9 14 12 78 4 78 -3 0 -5 11 -5 25 0 14 2
25 5 25 8 0 4 75 -4 89 -5 7 -3 18 2 23 8 8 8 17 1 30 -5 10 -6 18 -2 18 10 0
9 72 -1 89 -5 7 -3 18 2 23 8 8 8 17 1 30 -5 10 -6 18 -2 18 10 0 9 72 -1 89
-5 7 -3 18 2 23 8 8 8 17 1 30 -5 10 -6 18 -2 18 10 0 9 72 -1 88 -4 7 -4 17
0 24 9 14 12 78 4 78 -3 0 -5 11 -5 25 0 14 2 25 5 25 8 0 5 75 -4 88 -4 7 -4
17 0 24 11 17 12 78 1 78 -4 0 -3 9 3 19 7 14 7 22 0 26 -8 5 -7 11 1 21 6 8
7 14 2 14 -5 0 -16 11 -23 25 -7 13 -16 22 -21 20 -4 -3 -15 2 -23 11 -9 8
-16 12 -16 7z"/>
<path d="M3286 2989 c5 -8 -1 -10 -20 -7 -14 3 -26 2 -26 -2 0 -3 -13 -5 -30
-2 -16 2 -30 0 -30 -5 0 -6 -12 -10 -27 -9 -19 0 -27 -4 -25 -13 2 -9 -5 -12
-22 -9 -14 3 -24 2 -23 -1 3 -10 -41 -50 -47 -43 -3 3 -6 0 -6 -6 0 -6 -9 -14
-20 -17 -11 -4 -18 -11 -15 -16 4 -5 1 -9 -4 -9 -6 0 -11 -5 -11 -11 0 -6 -11
-20 -25 -30 -14 -12 -22 -26 -18 -34 3 -8 0 -15 -7 -15 -7 0 -10 -7 -6 -15 3
-8 1 -15 -4 -15 -9 0 -35 -77 -32 -92 1 -5 -2 -8 -6 -8 -9 0 -8 -42 2 -58 4
-6 2 -21 -4 -32 -8 -14 -8 -20 0 -20 8 0 8 -6 0 -20 -8 -14 -8 -20 0 -20 8 0
8 -6 0 -20 -8 -14 -8 -20 0 -20 8 0 8 -6 0 -20 -8 -14 -8 -20 0 -20 8 0 8 -6
0 -20 -8 -14 -8 -20 0 -20 8 0 8 -6 0 -20 -8 -14 -8 -20 0 -20 8 0 8 -6 0 -20
-8 -14 -8 -20 0 -20 7 0 7 -7 -1 -22 -7 -13 -11 -25 -10 -28 2 -3 7 -13 12
-22 5 -10 6 -18 2 -18 -10 0 -10 -41 0 -57 4 -7 3 -14 -2 -18 -6 -3 -7 -15 -2
-28 5 -12 5 -31 1 -42 -4 -11 -3 -25 2 -32 5 -7 5 -14 -1 -17 -6 -4 -7 -16 -2
-29 5 -12 5 -31 1 -42 -4 -11 -3 -25 2 -32 5 -7 5 -14 -1 -17 -6 -4 -7 -16 -2
-29 5 -12 5 -31 1 -42 -4 -11 -3 -25 2 -32 5 -7 5 -14 -1 -17 -7 -5 -7 -15 -1
-32 6 -14 7 -23 2 -21 -8 5 -6 -93 2 -101 3 -2 1 -13 -5 -23 -7 -13 -6 -19 1
-19 8 0 8 -6 0 -20 -8 -14 -8 -20 0 -20 8 0 8 -6 0 -20 -8 -14 -8 -20 0 -20 8
0 8 -6 0 -20 -8 -14 -8 -20 0 -20 8 0 8 -6 0 -20 -8 -14 -8 -20 0 -20 8 0 8
-6 0 -20 -8 -14 -8 -20 0 -20 8 0 8 -6 0 -20 -8 -14 -8 -20 0 -20 7 0 8 -6 2
-17 -10 -21 -10 -33 1 -50 4 -6 3 -15 -3 -18 -8 -5 -8 -11 0 -20 7 -9 8 -15 1
-19 -6 -4 -7 -16 -2 -29 5 -12 5 -31 1 -42 -4 -11 -3 -25 2 -32 5 -7 5 -14 -1
-17 -6 -4 -7 -15 -2 -29 5 -12 5 -32 0 -44 -5 -13 -4 -25 2 -28 5 -4 6 -12 2
-18 -4 -6 -7 -21 -7 -32 0 -11 3 -26 7 -32 4 -6 3 -14 -2 -18 -6 -3 -7 -15 -2
-28 5 -12 5 -31 1 -42 -4 -11 -3 -25 2 -32 5 -7 5 -14 -1 -17 -6 -4 -7 -16 -2
-29 5 -12 5 -31 1 -42 -4 -11 -3 -25 2 -32 5 -7 5 -14 -1 -17 -6 -4 -7 -16 -2
-29 5 -12 5 -31 1 -42 -4 -11 -3 -25 2 -32 5 -7 5 -14 -1 -17 -6 -4 -7 -15 -2
-29 5 -12 5 -32 0 -44 -5 -13 -4 -25 2 -29 6 -3 6 -10 1 -17 -5 -7 -6 -21 -2
-32 4 -11 4 -30 -1 -42 -5 -13 -4 -25 2 -29 6 -3 6 -10 1 -17 -5 -7 -6 -21 -2
-32 4 -11 4 -30 -1 -42 -5 -13 -4 -25 1 -28 6 -3 6 -15 0 -30 -6 -16 -6 -27 1
-31 8 -4 7 -9 -1 -14 -8 -5 -7 -12 5 -24 9 -9 13 -16 8 -16 -4 0 5 -12 20 -26
40 -37 85 -41 120 -12 15 13 27 27 27 32 0 4 7 14 15 22 10 11 12 21 6 31 -5
9 -5 29 -1 45 5 16 5 30 -1 34 -6 4 -6 10 0 18 6 7 8 16 4 20 -10 9 -13 36 -4
36 9 0 6 73 -3 88 -4 7 -4 18 0 24 11 18 12 48 2 54 -5 3 -4 12 2 19 8 9 8 15
0 20 -6 3 -7 12 -3 18 10 17 11 47 1 47 -5 0 -7 4 -3 9 8 14 13 71 6 71 -3 0
-6 11 -6 25 0 14 2 25 5 25 8 0 4 75 -4 89 -5 7 -3 18 2 23 8 8 8 17 1 30 -5
10 -6 18 -2 18 10 0 9 72 -1 89 -5 7 -3 18 2 23 8 8 8 17 1 30 -5 10 -6 18 -2
18 10 0 9 72 -1 89 -5 7 -3 18 2 23 8 8 8 17 1 30 -5 10 -6 18 -2 18 10 0 9
72 -1 88 -4 7 -4 18 1 24 4 7 6 26 4 42 -2 25 0 28 18 23 12 -3 21 -1 21 4 0
6 9 5 20 -1 15 -8 20 -8 18 2 -2 7 6 13 17 14 12 0 31 6 43 13 12 7 27 9 32 6
6 -3 10 -1 10 4 0 6 3 10 8 9 14 -3 61 25 56 33 -3 5 3 6 12 2 10 -4 22 0 29
10 6 9 24 21 39 27 15 5 24 15 21 20 -4 6 -2 9 3 8 5 -2 25 14 45 34 30 32 37
35 47 23 9 -11 9 -15 1 -15 -9 0 -9 -5 -1 -20 8 -14 8 -20 0 -20 -8 0 -8 -6 0
-20 8 -14 8 -20 0 -20 -8 0 -8 -6 0 -20 8 -14 8 -20 0 -20 -7 0 -8 -6 0 -19 7
-14 7 -22 0 -26 -8 -5 -8 -11 0 -20 6 -8 7 -16 2 -19 -9 -5 -7 -64 2 -74 3 -2
1 -15 -4 -28 -6 -15 -6 -26 1 -30 6 -3 6 -10 1 -17 -5 -7 -6 -21 -2 -32 4 -11
4 -30 -1 -42 -5 -13 -4 -25 2 -29 6 -3 6 -10 1 -17 -5 -7 -6 -21 -2 -32 4 -11
4 -30 -1 -42 -5 -13 -4 -25 2 -29 6 -3 6 -10 1 -17 -5 -7 -6 -21 -2 -32 4 -11
4 -30 -1 -42 -5 -13 -4 -25 2 -29 6 -3 6 -10 1 -17 -5 -7 -6 -21 -2 -32 4 -11
4 -30 -1 -42 -5 -12 -5 -24 -1 -27 9 -5 8 -59 -2 -74 -3 -6 -2 -14 4 -17 8 -5
8 -11 0 -20 -8 -10 -8 -15 0 -20 8 -5 8 -10 0 -20 -8 -10 -8 -15 0 -20 8 -5 8
-10 0 -20 -8 -10 -8 -15 0 -20 8 -5 8 -10 0 -20 -8 -10 -8 -15 0 -20 8 -5 8
-10 0 -20 -8 -10 -8 -15 0 -20 8 -5 8 -10 0 -20 -8 -9 -8 -15 0 -20 6 -3 7
-12 3 -18 -9 -15 -10 -37 -2 -62 3 -11 3 -29 -1 -40 -4 -11 -3 -25 2 -32 5 -7
5 -14 -1 -17 -7 -5 -7 -15 -1 -32 6 -14 6 -23 1 -20 -11 7 -2 -34 11 -50 4 -6
6 -19 2 -28 -4 -10 -1 -16 9 -16 8 0 20 -7 27 -15 8 -9 30 -15 59 -15 36 0 50
5 61 21 8 12 21 27 28 35 8 8 9 15 2 19 -7 4 -7 12 0 25 7 13 7 21 0 25 -6 4
-7 12 -3 18 10 17 11 47 1 47 -5 0 -7 4 -3 9 9 16 13 71 4 71 -5 0 -4 11 1 25
6 16 6 26 -1 31 -7 4 -7 10 0 18 6 7 8 16 4 20 -10 9 -13 36 -4 36 9 0 6 73
-3 88 -4 7 -4 18 0 24 11 18 12 48 2 54 -5 3 -4 12 2 19 8 9 8 15 0 20 -6 3
-7 12 -3 18 10 17 11 47 1 47 -5 0 -7 4 -3 9 9 16 13 71 4 71 -5 0 -4 11 1 25
6 16 6 26 -1 31 -7 4 -7 10 0 18 6 7 8 16 4 20 -10 9 -13 36 -4 36 9 0 6 73
-3 88 -4 7 -4 18 0 24 11 18 12 48 2 54 -5 3 -4 12 2 19 8 9 8 15 0 20 -6 3
-7 12 -3 18 10 17 11 47 1 47 -5 0 -7 4 -3 9 9 16 13 71 4 71 -5 0 -4 11 1 25
6 16 6 26 -1 31 -7 4 -7 10 0 18 6 7 8 16 4 20 -10 9 -13 36 -4 36 9 0 6 73
-3 88 -4 7 -4 18 0 24 11 18 12 48 2 54 -5 3 -4 12 2 19 8 9 8 15 0 20 -6 3
-7 12 -3 18 10 17 11 47 1 47 -5 0 -7 4 -3 9 9 16 13 71 4 71 -5 0 -4 11 1 25
6 16 6 26 -1 31 -7 4 -7 10 0 18 6 7 8 16 4 20 -10 9 -13 36 -4 36 9 0 6 73
-3 88 -4 7 -4 18 0 24 11 18 12 48 2 54 -5 3 -4 12 2 19 8 9 8 15 0 20 -6 3
-7 12 -3 18 10 17 11 47 1 47 -5 0 -7 4 -3 9 9 16 13 71 4 71 -5 0 -4 11 1 25
6 16 6 26 -1 31 -7 4 -7 10 0 18 6 7 8 16 4 20 -10 9 -13 36 -4 36 9 0 6 73
-3 88 -4 7 -4 18 0 24 11 18 12 48 2 54 -5 3 -4 12 2 19 8 9 8 15 0 20 -6 3
-7 12 -3 18 10 16 11 47 2 47 -4 0 -5 10 -2 21 4 15 0 27 -12 35 -13 10 -15
14 -5 14 10 0 11 3 3 11 -6 6 -9 19 -6 28 4 9 2 13 -2 9 -5 -5 -16 10 -26 32
-10 23 -25 48 -34 56 -8 9 -15 22 -15 30 0 8 -5 14 -11 14 -5 0 -7 5 -3 12 4
6 3 8 -3 5 -6 -4 -16 0 -23 8 -7 8 -19 15 -27 15 -7 0 -16 7 -19 15 -4 8 -11
15 -16 15 -5 0 -23 9 -39 21 -16 11 -29 18 -29 15 0 -3 -15 1 -33 9 -25 10
-37 11 -45 3 -8 -8 -15 -8 -24 -1 -21 16 -71 26 -62 12z m78 -210 c-3 -5 2 -6
11 -3 17 7 63 -20 83 -48 7 -10 18 -15 24 -12 7 4 8 2 4 -4 -4 -7 -2 -12 3
-12 6 0 11 -9 11 -19 0 -11 5 -23 11 -26 6 -4 8 -13 5 -21 -3 -7 -2 -15 2 -18
9 -5 8 -59 -2 -74 -3 -6 -2 -14 4 -17 8 -5 8 -11 0 -20 -8 -10 -8 -15 0 -20 8
-5 8 -10 0 -20 -8 -10 -8 -15 0 -20 8 -5 8 -10 0 -20 -8 -10 -8 -15 0 -20 8
-5 8 -10 0 -20 -8 -10 -8 -15 0 -20 8 -5 8 -10 0 -20 -8 -10 -8 -15 0 -20 8
-5 8 -10 0 -20 -8 -9 -8 -15 0 -20 6 -3 7 -12 3 -18 -9 -15 -10 -37 -2 -62 3
-11 3 -29 -1 -40 -4 -11 -3 -25 2 -32 5 -7 5 -14 -1 -17 -6 -4 -7 -16 -2 -29
5 -12 5 -31 1 -42 -4 -11 -3 -25 2 -32 5 -7 5 -14 -1 -17 -6 -4 -7 -15 -1 -30
4 -12 5 -28 0 -35 -4 -7 -5 -22 -3 -32 3 -10 1 -19 -5 -19 -5 0 -13 -15 -17
-32 -10 -43 -9 -39 -27 -73 -9 -16 -28 -42 -42 -56 -14 -15 -22 -30 -18 -35 4
-4 -1 -4 -10 -1 -10 4 -18 2 -18 -5 0 -16 -89 -98 -106 -98 -9 0 -12 -5 -8
-12 5 -8 2 -9 -9 -5 -12 4 -17 1 -17 -10 0 -9 -3 -14 -6 -10 -4 3 -23 -1 -42
-9 -20 -8 -41 -13 -48 -10 -7 3 -18 -2 -24 -10 -19 -22 -43 -18 -37 6 3 11 1
23 -4 26 -6 4 -6 11 1 19 8 9 8 15 0 20 -6 3 -7 12 -3 18 10 17 11 47 1 47 -5
0 -7 4 -3 9 9 16 13 71 4 71 -5 0 -4 11 1 25 6 16 6 26 -1 31 -7 4 -7 10 0 18
6 7 8 16 4 20 -10 9 -13 36 -4 36 9 0 6 73 -3 88 -4 7 -4 18 0 24 11 18 12 48
2 54 -5 3 -4 12 2 19 8 9 8 15 0 20 -6 3 -7 12 -3 18 10 17 11 47 1 47 -5 0
-7 4 -3 9 9 16 13 71 4 71 -5 0 -4 11 1 25 6 16 6 26 -1 31 -7 4 -7 10 0 18 6
7 8 16 4 20 -10 9 -13 36 -4 36 9 0 6 73 -3 88 -4 7 -4 18 1 25 10 16 10 39 0
54 -4 6 -3 14 3 18 6 3 7 12 3 18 -11 17 -13 37 -3 37 4 0 6 15 4 32 -3 22 3
42 17 62 12 16 15 26 8 22 -8 -4 -3 2 11 15 14 12 24 26 22 31 -1 5 2 7 8 3 5
-3 10 -1 10 5 0 6 5 8 10 5 6 -3 10 -3 10 2 0 13 89 46 110 40 11 -3 20 -1 20
3 0 5 13 4 30 -1 16 -6 27 -15 24 -20z"/>
<path d="M1014 2958 c-3 -5 -9 -6 -13 -4 -4 3 -19 -5 -33 -17 -21 -18 -26 -33
-29 -77 -2 -30 -8 -61 -14 -69 -7 -11 -7 -13 3 -7 8 5 12 0 12 -14 0 -13 -4
-19 -11 -14 -8 5 -8 1 0 -13 6 -11 8 -23 4 -26 -3 -4 0 -13 6 -21 9 -11 9 -16
0 -22 -8 -5 -9 -3 -4 6 5 9 4 11 -3 6 -8 -5 -9 -13 -2 -25 5 -10 7 -21 3 -24
-3 -4 0 -13 6 -21 9 -11 9 -16 0 -22 -8 -5 -9 -3 -4 6 5 9 4 11 -3 6 -9 -5 -7
-16 5 -39 15 -30 15 -31 -1 -18 -15 13 -16 12 -6 -13 13 -35 13 -39 -2 -30 -8
5 -8 3 -2 -7 13 -20 14 -90 1 -82 -6 4 -7 1 -2 -7 14 -22 16 -102 3 -94 -7 5
-8 2 -2 -7 13 -22 16 -51 3 -43 -6 3 -3 -6 7 -22 17 -27 17 -28 1 -15 -16 13
-17 12 -7 -13 13 -35 13 -39 -2 -30 -8 5 -8 3 -2 -7 13 -21 14 -90 0 -82 -6 4
-3 -4 6 -19 12 -18 14 -28 6 -36 -8 -8 -8 -19 1 -39 l13 -28 -23 20 c-17 14
-20 15 -10 3 17 -23 24 -151 8 -141 -7 4 -4 -4 5 -19 12 -18 14 -28 6 -36 -8
-8 -8 -19 1 -39 l13 -28 -23 20 c-13 11 -19 13 -13 5 7 -8 15 -26 19 -39 5
-18 4 -22 -5 -16 -10 6 -11 4 -4 -6 13 -21 14 -90 0 -82 -6 4 -3 -4 6 -19 12
-18 14 -28 6 -36 -8 -8 -8 -19 1 -39 l13 -28 -22 20 -21 19 16 -30 c18 -35 19
-48 3 -38 -8 5 -8 3 -2 -7 13 -21 14 -90 0 -82 -6 4 -3 -5 6 -19 10 -15 14
-29 9 -33 -5 -3 -8 -30 -6 -60 3 -41 1 -53 -8 -48 -7 4 -4 -4 5 -19 12 -18 14
-28 6 -36 -8 -8 -8 -19 1 -39 l13 -28 -23 20 c-13 11 -19 13 -13 5 7 -8 15
-26 19 -39 5 -18 4 -22 -5 -16 -10 6 -11 4 -4 -6 13 -21 14 -90 0 -82 -6 4 -3
-4 6 -19 12 -18 14 -28 6 -36 -8 -8 -8 -19 1 -39 l13 -28 -22 20 -21 19 16
-30 c18 -35 19 -48 3 -38 -8 5 -8 3 -2 -7 13 -21 14 -90 0 -82 -6 4 -3 -4 6
-19 12 -18 14 -28 6 -36 -8 -8 -8 -19 1 -39 l13 -28 -23 20 c-13 11 -19 13
-13 5 7 -8 15 -26 19 -39 5 -18 4 -22 -5 -16 -10 6 -11 4 -4 -6 13 -20 14 -90
1 -82 -6 4 -7 1 -2 -7 14 -22 16 -102 3 -94 -7 5 -8 2 -2 -7 13 -22 16 -51 3
-43 -6 3 -3 -6 7 -22 17 -27 17 -28 1 -15 -16 13 -17 12 -7 -13 13 -35 13 -39
-2 -30 -8 5 -8 3 -2 -7 13 -21 14 -90 0 -82 -6 4 -3 -4 6 -19 9 -14 14 -29 10
-33 -14 -13 -7 -70 10 -86 10 -9 14 -19 11 -23 -4 -4 0 -4 9 -1 9 4 27 1 39
-6 17 -9 24 -9 27 0 2 6 8 9 13 5 5 -3 9 1 9 8 0 9 3 9 10 -2 6 -10 10 -11 10
-2 0 6 9 21 20 32 12 12 18 25 15 30 -3 5 -1 12 5 15 8 5 8 11 0 20 -6 7 -7
16 -2 18 9 6 8 84 -1 94 -4 3 -2 13 3 22 5 10 5 23 0 31 -5 8 -5 21 0 30 5 9
5 22 0 30 -5 8 -5 21 0 30 5 9 5 22 0 30 -4 7 -4 23 0 35 5 14 4 27 -2 33 -8
8 -8 15 1 26 9 10 9 16 1 21 -8 5 -8 10 0 20 8 10 8 15 0 20 -8 5 -8 10 0 20
8 9 8 15 0 20 -6 3 -7 12 -3 18 10 17 10 80 -1 95 -5 7 -5 12 1 12 11 0 11 29
0 46 -3 6 -3 14 0 18 11 10 11 46 0 46 -6 0 -6 5 1 13 5 6 6 21 2 32 -4 11 -4
30 1 42 5 13 4 25 -1 28 -6 4 -7 14 -2 23 9 21 9 43 -1 60 -5 6 -4 12 1 12 10
0 10 30 -1 46 -3 6 -3 14 0 18 11 10 11 46 0 46 -6 0 -6 5 1 12 5 7 6 22 2 33
-4 11 -4 30 1 42 5 13 4 25 -1 28 -6 4 -7 14 -2 23 9 21 9 43 -1 60 -5 6 -4
12 1 12 10 0 10 30 -1 46 -3 6 -3 14 0 18 11 10 11 46 0 46 -6 0 -6 5 1 13 5
6 6 21 2 32 -4 11 -4 30 1 42 5 13 4 25 -1 28 -6 4 -7 14 -2 23 9 21 9 43 -1
60 -5 6 -4 12 1 12 10 0 10 30 -1 46 -3 6 -3 14 0 18 11 10 11 46 0 46 -6 0
-6 5 1 13 5 6 6 21 2 32 -4 11 -4 30 1 41 4 13 3 26 -3 32 -8 8 -8 15 1 26 9
10 9 16 1 21 -8 5 -8 10 0 20 8 10 8 15 0 20 -8 5 -8 10 0 20 8 9 8 15 0 20
-6 3 -7 12 -3 18 10 16 11 68 2 88 -4 8 -4 21 1 29 5 8 5 21 0 30 -5 9 -5 22
0 30 5 8 5 21 0 30 -5 9 -5 22 0 30 5 8 5 21 1 29 -5 9 -5 25 -1 36 4 11 3 26
-2 33 -7 8 -7 17 1 26 9 10 9 16 1 21 -8 5 -8 10 0 20 8 10 8 15 0 20 -8 5 -8
10 0 20 8 9 8 15 0 20 -6 3 -7 12 -3 18 9 15 10 37 2 62 -3 11 -3 29 1 40 4
11 4 25 -1 30 -4 6 -4 17 0 24 7 10 23 -1 66 -45 32 -33 61 -58 66 -56 5 1 9
-4 9 -11 0 -8 9 -22 20 -32 11 -10 18 -20 15 -23 -2 -3 7 -16 21 -29 15 -13
24 -27 21 -30 -3 -3 5 -16 19 -30 13 -13 22 -29 19 -34 -4 -5 -2 -9 3 -9 10 0
38 -60 34 -72 -1 -5 2 -8 8 -8 5 0 10 -9 10 -19 0 -11 5 -23 10 -26 6 -4 8
-11 5 -16 -4 -5 1 -12 9 -15 11 -4 13 -11 5 -30 -6 -17 -6 -23 1 -19 8 5 15
-8 8 -17 -1 -2 4 -14 11 -27 7 -13 8 -21 3 -17 -6 4 -8 -2 -5 -14 3 -11 10
-20 15 -20 5 0 8 -6 5 -12 -2 -7 0 -23 4 -35 6 -15 5 -23 -2 -23 -8 0 -8 -4 0
-14 8 -10 9 -16 1 -21 -7 -4 -7 -12 0 -26 8 -13 7 -19 0 -19 -6 0 -9 -4 -6 -8
5 -8 7 -123 4 -169 -1 -13 -6 -23 -10 -23 -4 0 -5 -7 -2 -15 4 -8 2 -15 -3
-15 -5 0 -8 -18 -7 -40 1 -25 -2 -37 -9 -33 -6 4 -8 -4 -5 -21 3 -17 -1 -34
-13 -48 -21 -24 -24 -32 -8 -22 8 4 8 0 0 -15 -7 -11 -9 -21 -5 -21 3 0 0 -7
-7 -16 -7 -9 -14 -25 -16 -35 -2 -11 -11 -36 -21 -57 -10 -20 -17 -44 -15 -54
2 -9 -1 -19 -6 -23 -6 -3 -11 -19 -11 -35 0 -16 -4 -31 -9 -35 -5 -3 -9 -18
-9 -33 1 -38 -12 -73 -24 -66 -6 4 -6 -2 1 -15 9 -16 9 -21 0 -21 -8 0 -8 -4
-1 -13 7 -8 7 -18 2 -27 -5 -9 -5 -19 2 -27 7 -9 7 -13 -2 -13 -10 0 -10 -3
-1 -14 9 -10 9 -16 1 -21 -6 -4 -9 -13 -6 -21 3 -8 1 -14 -5 -14 -6 0 -9 -62
-9 -171 1 -94 -1 -173 -4 -176 -3 -3 -1 -14 5 -24 6 -11 6 -19 0 -19 -5 0 -6
-14 -1 -35 4 -20 4 -38 -1 -41 -5 -3 -5 -13 1 -25 6 -11 7 -19 1 -19 -5 0 -6
-14 -1 -35 4 -20 4 -38 -1 -41 -5 -3 -5 -13 1 -25 6 -11 7 -19 1 -19 -5 0 -6
-14 -1 -35 4 -20 4 -38 -1 -41 -5 -3 -5 -13 1 -25 6 -11 7 -19 1 -19 -5 0 -6
-14 -1 -35 4 -19 4 -37 0 -40 -4 -2 -5 -16 -3 -30 3 -14 10 -22 16 -18 6 4 8
-3 5 -18 -4 -20 3 -28 39 -47 28 -14 43 -18 43 -10 0 9 3 9 12 0 8 -8 17 -8
32 0 42 22 57 50 55 103 -1 27 2 58 6 68 4 10 3 17 -5 17 -6 0 -9 4 -5 9 8 14
13 71 6 71 -8 0 -5 80 4 102 4 11 3 18 -4 18 -8 0 -9 6 -2 18 5 10 6 23 3 29
-9 14 -7 71 3 95 4 11 3 18 -4 18 -8 0 -9 6 -2 19 6 10 8 21 5 24 -8 8 -7 159
1 180 4 10 3 17 -4 17 -8 0 -9 6 -2 19 6 10 8 21 4 24 -11 11 -2 191 10 206
10 12 9 13 -3 6 -11 -6 -10 -3 2 11 14 16 15 23 6 32 -9 9 -9 12 0 12 10 0 10
5 2 20 -8 16 -8 22 3 26 13 4 15 17 20 91 0 12 5 19 9 17 8 -5 12 9 9 39 -1 9
3 17 10 17 7 0 10 3 6 6 -3 4 2 23 12 43 10 20 16 41 14 47 -2 6 3 16 11 23 7
6 12 21 9 31 -3 12 0 20 7 20 7 0 10 7 7 15 -4 8 -2 17 3 20 5 3 7 14 5 25 -2
12 0 18 4 15 5 -3 12 3 16 12 3 10 2 19 -3 21 -12 4 -3 42 9 42 4 0 6 9 4 20
-2 11 1 22 6 26 6 4 6 10 -1 19 -6 8 -7 16 -2 19 5 3 8 18 6 33 -4 40 6 74 20
66 6 -4 5 1 -3 10 -7 9 -9 17 -4 17 5 0 10 7 10 15 0 8 -3 15 -6 15 -3 0 -4
25 -3 55 3 39 -1 63 -12 80 -9 14 -13 25 -8 25 9 0 9 41 -1 57 -4 7 -3 15 3
18 8 5 8 11 1 19 -6 7 -8 16 -4 19 3 4 -1 7 -10 7 -13 0 -15 5 -7 24 6 18 5
28 -5 36 -7 6 -12 22 -10 36 1 15 -3 28 -12 31 -8 3 -13 14 -10 24 3 11 1 22
-4 25 -13 8 -43 76 -40 93 1 7 -2 10 -7 7 -6 -3 -13 6 -16 19 -4 14 -11 23
-15 20 -5 -3 -7 4 -4 15 3 12 -1 22 -11 26 -9 3 -13 10 -10 15 3 5 0 9 -5 9
-6 0 -11 5 -11 11 0 7 -11 22 -24 34 -14 13 -22 26 -19 29 3 3 -13 24 -36 46
-22 22 -41 44 -41 50 0 5 -7 10 -15 10 -14 0 -19 12 -16 32 0 5 -2 7 -7 7 -21
-4 -32 3 -32 18 0 9 -3 14 -6 10 -3 -3 -31 20 -62 51 -30 31 -51 50 -47 42 10
-17 -35 18 -48 37 -4 7 -14 10 -22 7 -8 -4 -15 -1 -15 4 0 19 -86 37 -96 20z"/>
</g>
</svg>
